Transforming and analyzing data :: Journalism with R
…
murders <- group_by(murders, MSA_label)

summarize(murders, 
          first=min(Year), 
          last=max(Year),
          cases=n())

## # A tibble: 409 x 4
##    MSA_label                         first  last cases
##    <fctr>                            <dbl> <dbl> <int>
##  1 Abilene, TX                        1976  2016   366
##  2 Akron, OH                          1976  2016  1080
##  3 Albany, GA                         1976  2016   633
##  4 Albany-Schenectady-Troy, NY        1976  2016   829
##  5 Albuquerque, NM                    1976  2016  2374
##  6 Alexandria, LA                     1976  2016   576
##  7 Allentown-Bethlehem-Easton, PA-NJ  1976  2016   882
##  8 Altoona, PA                        1976  2016   120
##  9 Amarillo, TX                       1976  2016   724
## 10 Ames, IA                           1978  2016    26
## # ... with 399 more rows
…
There are a lot of interesting things you can do with mutate().

Let’s try out lag() within mutate() – it lets you do math based on the previous row of a vector.

For example, in the data frame above we’ve got the number of murders in DC. With lag() and some math to can calculate the difference in the number of murders year over year.

# We can keep the code from before but now we add a new mutate line
filter(murders, State=="District of Columbia") %>% 
  group_by(Year) %>% 
  summarize(total=n()) %>%
  mutate(previous_year=lag(total)) %>% 
  mutate(change=previous_year-total)

## # A tibble: 35 x 4
##     Year total previous_year change
##    <dbl> <int>         <int>  <int>
##  1  1976   203            NA     NA
##  2  1977   202           203      1
##  3  1978   196           202      6
##  4  1979   171           196     25
##  5  1980   180           171    - 9
##  6  1981   232           180    -52
##  7  1982   204           232     28
##  8  1983   188           204     16
##  9  1984   175           188     13
## 10  1985   149           175     26
## # ... with 25 more rows
…
We summarized the code and then we mutated a new column based on lag() and then we mutated a second column based on the new column and the old column.

You can use mutate more than once

# Here's an example of the same code above but with mutate called just once
# previous_year was able to be referenced a second time because it was created in first
years <- filter(murders, State=="District of Columbia") %>% 
  group_by(Year) %>% 
  summarize(total=n()) %>%
  mutate(previous_year=lag(total), change=previous_year-total) 

years

## # A tibble: 35 x 4
##     Year total previous_year change
##    <dbl> <int>         <int>  <int>
##  1  1976   203            NA     NA
##  2  1977   202           203      1
##  3  1978   196           202      6
##  4  1979   171           196     25
##  5  1980   180           171    - 9
##  6  1981   232           180    -52
##  7  1982   204           232     28
##  8  1983   188           204     16
##  9  1984   175           188     13
## 10  1985   149           175     26
## # ... with 25 more rows

So mutate() works when the formula you pass it returns a vectorized output. For example, if a vector has 10 instances in it, then the formula needs to output 10 instances, too.

Passing it a formula like sum() would confuse it.

years %>% mutate(all_murders=sum(total))

## # A tibble: 35 x 5
##     Year total previous_year change all_murders
##    <dbl> <int>         <int>  <int>       <int>
##  1  1976   203            NA     NA        8209
##  2  1977   202           203      1        8209
##  3  1978   196           202      6        8209
##  4  1979   171           196     25        8209
##  5  1980   180           171    - 9        8209
##  6  1981   232           180    -52        8209
##  7  1982   204           232     28        8209
##  8  1983   188           204     16        8209
##  9  1984   175           188     13        8209
## 10  1985   149           175     26        8209
## # ... with 25 more rows
…
