…
bulk_csv(folder="data/csvs", export="combined_data.csv")

## 
  |                                                                       
  |                                                                 |   0%
  |                                                                       
  |================                                                 |  25%
  |                                                                       
  |================================                                 |  50%
  |                                                                       
  |=================================================                |  75%
  |                                                                       
  |=================================================================| 100%

## # A tibble: 3,558 x 11
##    STATEFP COUNTYFP TRACTCE   GEOID   NAME NAMELSAD subid.GEOID subid.NAME
##      <int>    <int>   <int>   <dbl>  <dbl> <chr>          <int> <chr>     
##  1       2      198     300  2.20e9 3.00e0 Census …   213039010 Ketchikan 
##  2       2      198  940100  2.20e9 9.40e3 Census …   219864310 Prince of…
##  3       2      198     200  2.20e9 2.00e0 Census …   219864310 Prince of…
##  4       2      198     100  2.20e9 1.00e0 Census …   219864310 Prince of…
##  5       2      164     100  2.16e9 1.00e0 Census …   215041200 Kodiak Is…
##  6       2       16     200  2.02e9 2.00e0 Census …   201601615 Aleutians…
##  7       2       16     100  2.02e9 1.00e0 Census …   201601615 Aleutians…
##  8       2      170     502  2.17e9 5.02e0 Census …   212238460 Kenai-Coo…
##  9       2      170     501  2.17e9 5.01e0 Census …   217047440 Matanuska…
## 10       2      170    1202  2.17e9 1.20e1 Census …   217047440 Matanuska…
## # ... with 3,548 more rows, and 3 more variables: legit_geo <int>,
## #   legit_name <chr>, legit_area <dbl>
…
bulk_csv(folder="data/csvs", export="data/data_export/combined_data.csv")

## 
  |                                                                       
  |                                                                 |   0%
  |                                                                       
  |================                                                 |  25%
  |                                                                       
  |================================                                 |  50%
  |                                                                       
  |=================================================                |  75%
  |                                                                       
  |=================================================================| 100%

## # A tibble: 3,558 x 11
##    STATEFP COUNTYFP TRACTCE   GEOID   NAME NAMELSAD subid.GEOID subid.NAME
##      <int>    <int>   <int>   <dbl>  <dbl> <chr>          <int> <chr>     
##  1       2      198     300  2.20e9 3.00e0 Census …   213039010 Ketchikan 
##  2       2      198  940100  2.20e9 9.40e3 Census …   219864310 Prince of…
##  3       2      198     200  2.20e9 2.00e0 Census …   219864310 Prince of…
##  4       2      198     100  2.20e9 1.00e0 Census …   219864310 Prince of…
##  5       2      164     100  2.16e9 1.00e0 Census …   215041200 Kodiak Is…
##  6       2       16     200  2.02e9 2.00e0 Census …   201601615 Aleutians…
##  7       2       16     100  2.02e9 1.00e0 Census …   201601615 Aleutians…
##  8       2      170     502  2.17e9 5.02e0 Census …   212238460 Kenai-Coo…
##  9       2      170     501  2.17e9 5.01e0 Census …   217047440 Matanuska…
## 10       2      170    1202  2.17e9 1.20e1 Census …   217047440 Matanuska…
## # ... with 3,548 more rows, and 3 more variables: legit_geo <int>,
## #   legit_name <chr>, legit_area <dbl>
…
