…
Data can be messy but there’s an ideal structure for how to stack your data.

And that’s with

Each variable is in its own column

Each case is in its own row

Each value is in its own cell

murders %>% 
  group_by(State, Year) %>% 
  summarize(cases=n(), solved=sum(Solved_value))

## # A tibble: 2,066 x 4
## # Groups:   State [?]
##    State   Year cases solved
##    <fct>  <dbl> <int>  <dbl>
##  1 Alaska  1976    47     37
##  2 Alaska  1977    47     32
##  3 Alaska  1978    50     44
##  4 Alaska  1979    51     35
##  5 Alaska  1980    47     37
##  6 Alaska  1981    69     62
##  7 Alaska  1982    75     47
##  8 Alaska  1983    74     63
##  9 Alaska  1984    52     45
## 10 Alaska  1985    50     36
## # ... with 2,056 more rows

This type of data structure is easy to mutate and manipulate

murders %>% 
  group_by(State, Year) %>% 
  summarize(cases=n(), solved=sum(Solved_value)) %>% 
  mutate(percent=solved/cases*100)

## # A tibble: 2,066 x 5
## # Groups:   State [51]
##    State   Year cases solved percent
##    <fct>  <dbl> <int>  <dbl>   <dbl>
##  1 Alaska  1976    47     37    78.7
##  2 Alaska  1977    47     32    68.1
##  3 Alaska  1978    50     44    88  
##  4 Alaska  1979    51     35    68.6
##  5 Alaska  1980    47     37    78.7
##  6 Alaska  1981    69     62    89.9
##  7 Alaska  1982    75     47    62.7
##  8 Alaska  1983    74     63    85.1
##  9 Alaska  1984    52     45    86.5
## 10 Alaska  1985    50     36    72  
## # ... with 2,056 more rows

On the other hand, the data below is not tidy.

## # A tibble: 6,198 x 4
## # Groups:   State [51]
##    State   Year type        n
##    <fct>  <dbl> <chr>   <dbl>
##  1 Alaska  1976 solved   37  
##  2 Alaska  1976 percent  78.7
##  3 Alaska  1976 cases    47  
##  4 Alaska  1977 solved   32  
##  5 Alaska  1977 percent  68.1
##  6 Alaska  1977 cases    47  
##  7 Alaska  1978 solved   44  
##  8 Alaska  1978 percent  88  
##  9 Alaska  1978 cases    50  
## 10 Alaska  1979 solved   35  
## # ... with 6,188 more rows
…
