…
# This is the same process as before but we're telling R to group up the metro areas before summarizing the data

murders <- group_by(murders, MSA_label)

summarize(murders, 
          first=min(Year), 
          last=max(Year),
          cases=n())

## # A tibble: 409 x 4
##    MSA_label                         first  last cases
##    <fct>                             <dbl> <dbl> <int>
##  1 Abilene, TX                        1976  2016   366
##  2 Akron, OH                          1976  2016  1080
##  3 Albany, GA                         1976  2016   633
##  4 Albany-Schenectady-Troy, NY        1976  2016   829
##  5 Albuquerque, NM                    1976  2016  2374
##  6 Alexandria, LA                     1976  2016   576
##  7 Allentown-Bethlehem-Easton, PA-NJ  1976  2016   882
##  8 Altoona, PA                        1976  2016   120
##  9 Amarillo, TX                       1976  2016   724
## 10 Ames, IA                           1978  2016    26
## # ... with 399 more rows
…
There are a lot of interesting things you can do with mutate().

Let’s try out lag() within mutate() – it lets you do math based on the previous row of a vector.

For example, in the data frame above we’ve got the number of murders in DC. With lag() and some math, we can calculate the difference in the number of murders year over year.

# We can keep the code from before but now we add a new mutate line
filter(murders, State=="District of Columbia") %>% 
  group_by(Year) %>% 
  summarize(total=n()) %>%
  mutate(previous_year=lag(total)) %>% 
  mutate(change=total-previous_year)

## # A tibble: 35 x 4
##     Year total previous_year change
##    <dbl> <int>         <int>  <int>
##  1  1976   203            NA     NA
##  2  1977   202           203     -1
##  3  1978   196           202     -6
##  4  1979   171           196    -25
##  5  1980   180           171      9
##  6  1981   232           180     52
##  7  1982   204           232    -28
##  8  1983   188           204    -16
##  9  1984   175           188    -13
## 10  1985   149           175    -26
## # ... with 25 more rows
…
We summarized the code and then we mutated a new column based on lag() and then we mutated a second column based on the new column and the old column.

You can use mutate more than once

# Here's an example of the same code above but with mutate called just once
# previous_year was able to be referenced a second time because it was created in first
years <- filter(murders, State=="District of Columbia") %>% 
  group_by(Year) %>% 
  summarize(total=n()) %>%
  mutate(previous_year=lag(total), change=previous_year-total) 

years

## # A tibble: 35 x 4
##     Year total previous_year change
##    <dbl> <int>         <int>  <int>
##  1  1976   203            NA     NA
##  2  1977   202           203      1
##  3  1978   196           202      6
##  4  1979   171           196     25
##  5  1980   180           171     -9
##  6  1981   232           180    -52
##  7  1982   204           232     28
##  8  1983   188           204     16
##  9  1984   175           188     13
## 10  1985   149           175     26
## # ... with 25 more rows

So mutate() works when the formula you pass it returns a vectorized output. For example, if a vector has 10 instances in it, then the formula needs to output 10 instances, too.

Passing it a formula like sum() would confuse it.

years %>% mutate(all_murders=sum(total))

## # A tibble: 35 x 5
##     Year total previous_year change all_murders
##    <dbl> <int>         <int>  <int>       <int>
##  1  1976   203            NA     NA        8209
##  2  1977   202           203      1        8209
##  3  1978   196           202      6        8209
##  4  1979   171           196     25        8209
##  5  1980   180           171     -9        8209
##  6  1981   232           180    -52        8209
##  7  1982   204           232     28        8209
##  8  1983   188           204     16        8209
##  9  1984   175           188     13        8209
## 10  1985   149           175     26        8209
## # ... with 25 more rows
…
By grouping VicSex_label we got the counts (n()) for all the instances available in that variable.

We can add another variable (column) name into the group_by() to drill deeper. Watch what happens when we add State.

murders %>% 
  group_by(State, VicSex_label) %>% 
  summarize(total=n())

## # A tibble: 147 x 3
## # Groups:   State [?]
##    State    VicSex_label total
##    <fct>    <fct>        <int>
##  1 Alaska   Female         565
##  2 Alaska   Male          1385
##  3 Alaska   Unknown          2
##  4 Alabama  Female        3586
##  5 Alabama  Male         11955
##  6 Alabama  Unknown        146
##  7 Arkansas Female        2019
##  8 Arkansas Male          6049
##  9 Arkansas Unknown         28
## 10 Arizona  Female        3252
## # ... with 137 more rows

Interesting, right? The structure for the data here might be foreign to you. As it stands, this data is considered tidy. Each variable is a column and each observation (or case) is a row. This makes it easier to analyze the data in R and create charts.

But you’re probably used to data that looks like

## # A tibble: 51 x 4
## # Groups:   State [51]
##    State                Female  Male Unknown
##    <fct>                 <int> <int>   <int>
##  1 Alaska                  565  1385       2
##  2 Alabama                3586 11955     146
##  3 Arkansas               2019  6049      28
##  4 Arizona                3252 11203      29
##  5 California            21826 92756      38
##  6 Colorado               2233  5476       5
##  7 Connecticut            1394  4139       5
##  8 District of Columbia   1041  7155      13
##  9 Delaware                399  1048      NA
## 10 Florida               10699 32632     128
## # ... with 41 more rows
…
Percents

Now we get a chance to chain together all the verbs we’ve used

percent_murders <- murders %>% 
  group_by(State, VicSex_label) %>% 
  summarize(total=n()) %>% 
  # okay, we've got the total, now we can do some math with mutate
  mutate(percent=total/sum(total, na.rm=T)*100) 
  # did you notice the na.rm=T added to the sum function? This removes NAs
  # That's necessary because if you have a single NA then it will not sum correctly (thanks, statisticians!)

percent_murders

## # A tibble: 147 x 4
## # Groups:   State [51]
##    State    VicSex_label total percent
##    <fct>    <fct>        <int>   <dbl>
##  1 Alaska   Female         565  28.9  
##  2 Alaska   Male          1385  71.0  
##  3 Alaska   Unknown          2   0.102
##  4 Alabama  Female        3586  22.9  
##  5 Alabama  Male         11955  76.2  
##  6 Alabama  Unknown        146   0.931
##  7 Arkansas Female        2019  24.9  
##  8 Arkansas Male          6049  74.7  
##  9 Arkansas Unknown         28   0.346
## 10 Arizona  Female        3252  22.5  
## # ... with 137 more rows
…
