…
## Parsed with column specification:
## cols(
##   `Office Name` = col_character(),
##   `Job Code` = col_integer(),
##   `Job Title` = col_character(),
##   `Base Pay` = col_character(),
##   `Position ID` = col_integer(),
##   `Employee Identifier` = col_character(),
##   `Original Hire Date` = col_character()
## )

df1

## # A tibble: 23 x 7
##    `Office Name`  `Job Code` `Job Title`         `Base Pay`  `Position ID`
##    <chr>               <int> <chr>               <chr>               <int>
##  1 STATES ATTORN…       1172 Assistant State's … " $20,088.…       9510200
##  2 STATES ATTORN…       1172 Assistant State's … " $23,436.…       9510200
##  3 STATES ATTORN…       1172 Assistant State's … " $20,422.…       9510200
##  4 STATES ATTORN…       1172 Assistant State's … " $23,904.…       9510200
##  5 STATES ATTORN…       1172 Assistant State's … " $20,745.…       9510200
##  6 STATES ATTORN…       1172 Assistant State's … " $24,473.…       9510200
##  7 STATES ATTORN…       1172 Assistant State's … " $21,217.…       9510200
##  8 COUNTY ASSESS…       5049 Residential Model … " $17,770.…       9500731
##  9 COUNTY ASSESS…       5049 Residential Model … " $20,800.…       9500731
## 10 COUNTY ASSESS…       5049 Residential Model … " $17,873.…       9500731
## # ... with 13 more rows, and 2 more variables: `Employee
## #   Identifier` <chr>, `Original Hire Date` <chr>
…
## Parsed with column specification:
## cols(
##   `Office Name` = col_character(),
##   `Job Code` = col_integer(),
##   `Job Title` = col_character(),
##   `Base Pay` = col_character(),
##   `Position ID` = col_integer(),
##   `Employee Identifier` = col_character(),
##   `Original Hire Date` = col_character()
## )

df2

## # A tibble: 23 x 7
##    `Office Name`  `Job Code` `Job Title`          `Base Pay` `Position ID`
##    <chr>               <int> <chr>                <chr>              <int>
##  1 STATES ATTORN…       1172 Assistant State's A… $20,088.00       9510200
##  2 STATES ATTORN…       1172 Assistant State's A… $23,436.00       9510200
##  3 STATES ATTORN…       1172 Assistant State's A… $20,422.82       9510200
##  4 STATES ATTORN…       1172 Assistant State's A… $23,904.80       9510200
##  5 STATES ATTORN…       1172 Assistant State's A… $20,745.80       9510200
##  6 STATES ATTORN…       1172 Assistant State's A… $24,473.38       9510200
##  7 STATES ATTORN…       1172 Assistant State's A… $21,217.35       9510200
##  8 COUNTY ASSESS…       5049 Residential Model S… $17,770.86       9500731
##  9 COUNTY ASSESS…       5049 Residential Model S… $20,800.67       9500731
## 10 COUNTY ASSESS…       5049 Residential Model S… $17,873.76       9500731
## # ... with 13 more rows, and 2 more variables: `Employee
## #   Identifier` <chr>, `Original Hire Date` <chr>
…
